<?xml version="1.0" standalone="no"?>
<!DOCTYPE svg PUBLIC "-//W3C//DTD SVG 1.1//EN" "http://www.w3.org/Graphics/SVG/1.1/DTD/svg11.dtd" >
<!--
2019-3-20: Created with FontForge (http://fontforge.org)
-->
<svg xmlns="http://www.w3.org/2000/svg" xmlns:xlink="http://www.w3.org/1999/xlink" version="1.1">
<metadata>
Created by FontForge 20170731 at Wed Mar 20 12:59:35 2019
 By root

</metadata>
<defs>
<font id="Flaticon" horiz-adv-x="512" >
  <font-face 
    font-family="Flaticon"
    font-weight="400"
    font-stretch="normal"
    units-per-em="512"
    panose-1="2 0 5 3 0 0 0 0 0 0"
    ascent="448"
    descent="-64"
    bbox="0 -64 512.007 448"
    underline-thickness="25.6"
    underline-position="-51.2"
    unicode-range="U+0020-F106"
  />
    <missing-glyph />
    <glyph glyph-name="space" unicode=" " horiz-adv-x="200" 
 />
    <glyph glyph-name="002-instagram-logo" unicode="&#xf101;" 
d="M370.701 448c77.9131 0 141.299 -63.3857 141.296 -141.293v-229.411c0 -77.9072 -63.3828 -141.293 -141.296 -141.293h-229.411c-77.9072 0 -141.29 63.3828 -141.29 141.293v229.411c0 77.9072 63.3828 141.293 141.29 141.293h229.411zM466.573 77.2959h-0.00292969
v229.411c0 52.8594 -43.0068 95.8662 -95.8691 95.8662h-229.411c-52.8594 0 -95.8633 -43.0068 -95.8633 -95.8662v-229.411c0 -52.8623 43.0039 -95.8691 95.8633 -95.8662h229.414c52.8623 0 95.8691 43.0039 95.8691 95.8662zM255.998 323.924
c72.7471 0 131.929 -59.1816 131.929 -131.929c0 -72.7432 -59.1816 -131.922 -131.929 -131.922c-72.7461 0 -131.929 59.1787 -131.929 131.922c0 72.7471 59.1826 131.929 131.929 131.929zM255.998 105.503c47.6953 0 86.502 38.8008 86.502 86.4951
c0 47.6982 -38.8037 86.502 -86.502 86.502s-86.501 -38.8037 -86.501 -86.502c0 -47.6943 38.8066 -86.4951 86.501 -86.4951zM393.46 362.443c8.78223 0 17.3838 -3.54395 23.5615 -9.75195c6.20801 -6.17773 9.75195 -14.7793 9.75195 -23.5615
c0 -8.75195 -3.54395 -17.3525 -9.75195 -23.5615c-6.20801 -6.17773 -14.7793 -9.75098 -23.5615 -9.75098c-8.75195 0 -17.3525 3.57324 -23.5312 9.75098c-6.20801 6.20898 -9.78125 14.8066 -9.78125 23.5615c0 8.78223 3.57031 17.3838 9.78125 23.5615
c6.18164 6.20801 14.7793 9.75195 23.5312 9.75195z" />
    <glyph glyph-name="001-twitter-logo-silhouette" unicode="&#xf100;" 
d="M512 350.738c-14.0459 -21.0518 -31.8975 -39.5439 -52.5332 -54.2627l0.351562 -13.5977c0 -138.789 -105.612 -298.823 -298.823 -298.823c-59.3174 0 -114.507 17.4043 -160.994 47.2549c8.22168 -0.927734 16.5732 -1.43945 25.0508 -1.43945
c49.207 0 94.5107 16.7324 130.439 44.8877c-45.9434 0.832031 -84.7207 31.1943 -98.0938 72.9463c6.43066 -1.2793 12.9902 -1.95117 19.7725 -1.95117c9.59863 0 18.876 1.31152 27.6748 3.67871c-48.0225 9.66309 -84.2402 52.1191 -84.2402 102.989v1.31152
c14.1729 -7.87012 30.3623 -12.6055 47.5752 -13.1807c-28.1553 18.8115 -46.7119 50.9648 -46.7119 87.4072c0 19.2607 5.15137 37.3047 14.2061 52.79c51.7979 -63.541 129.191 -105.356 216.471 -109.74c-1.79199 7.67871 -2.7207 15.71 -2.7207 23.9316
c0 57.9727 47.0312 105.004 105.036 105.004c30.2354 0 57.4941 -12.7334 76.6582 -33.1777c23.9316 4.73535 46.3926 13.4707 66.7402 25.5c-7.87012 -24.4756 -24.4746 -45.0791 -46.167 -58.0693c21.2441 2.52832 41.4639 8.19141 60.3086 16.541z" />
    <glyph glyph-name="004-star" unicode="&#xf103;" 
d="M103.441 -51.9121c-1.89746 0 -3.79492 0.586914 -5.38867 1.75098c-2.82324 2.05273 -4.23438 5.52637 -3.63867 8.96289l28.3281 165.128l-119.975 116.932c-2.49219 2.4375 -3.39062 6.07617 -2.31836 9.38477c1.08105 3.31738 3.9502 5.73633 7.40527 6.24121
l165.788 24.0938l74.1504 150.235c1.54004 3.13379 4.72949 5.11426 8.21191 5.11426v0c3.49121 0 6.68066 -1.98047 8.21094 -5.11426l74.1416 -150.235l165.798 -24.0938c3.45508 -0.504883 6.31445 -2.91504 7.40527 -6.24121
c1.07227 -3.30859 0.182617 -6.95605 -2.31934 -9.38477l-119.974 -116.95l28.3184 -165.119c0.586914 -3.43652 -0.824219 -6.91016 -3.63867 -8.96289c-2.82227 -2.07129 -6.57031 -2.33691 -9.65918 -0.696289l-148.283 77.9541l-148.302 -77.9541
c-1.33887 -0.696289 -2.80469 -1.04492 -4.26172 -1.04492zM28.8594 241.026l110.122 -107.346c2.15332 -2.09863 3.14355 -5.14062 2.62988 -8.11035l-26 -151.564l136.132 71.5576c2.66699 1.41113 5.84668 1.41113 8.53223 0l136.113 -71.5576l-25.9912 151.564
c-0.513672 2.96973 0.476562 6.00293 2.62988 8.11035l110.122 107.346l-152.178 22.1143c-2.98828 0.430664 -5.56348 2.30957 -6.90137 5.0127l-68.0654 137.891l-68.0664 -137.899c-1.33789 -2.7041 -3.91309 -4.58301 -6.90039 -5.01367z" />
    <glyph glyph-name="005-facebook-logo" unicode="&#xf104;" 
d="M512 362.661v-341.322c0 -44.8398 -40.4824 -85.3389 -85.333 -85.3389h-91.0225v193.422h85.333v85.334h-85.333v33.9961c0 13.7275 8.80664 22.8926 16.3555 22.8926h68.9775v85.333h-68.9775c-52.9463 0 -96 -51.6377 -96 -108.977v-33.2451h-62.5781v-85.334h62.5781
v-193.422h-170.661c-44.8564 0 -85.3389 40.499 -85.3389 85.3389v341.322c0 44.8398 40.4824 85.3389 85.333 85.3389h341.334c44.8506 0 85.333 -40.499 85.333 -85.3389z" />
    <glyph glyph-name="003-linkedin-logo" unicode="&#xf102;" 
d="M474.19 448c20.8896 0 37.8057 -16.4248 37.8057 -36.6836v-438.617c0 -20.2559 -16.916 -36.6992 -37.8057 -36.6992h-436.358c-20.8887 0 -37.8301 16.4326 -37.8301 36.6992v438.617c0 20.2646 16.9355 36.6836 37.8301 36.6836h436.358zM155.225 19.4209v231.162
h-77.3584v-231.162h77.3584zM116.553 282.163c26.9521 0 43.7354 17.7373 43.7354 39.9531c-0.513672 22.6631 -16.7891 39.9189 -43.2471 39.9189c-26.4561 0 -43.7666 -17.2607 -43.7666 -39.9189c0 -22.2119 16.8164 -39.9531 42.7578 -39.9531h0.520508z
M434.079 19.4209v132.549c0 71.0361 -38.165 104.056 -89.0654 104.056c-41.0664 0 -59.4111 -22.4639 -69.6777 -38.2109v32.7725h-77.3311c1.01172 -21.6807 0 -231.161 0 -231.161h77.3193v129.117c0 6.88965 0.511719 13.7891 2.57812 18.7227
c5.57715 13.8115 18.2773 28.1172 39.6719 28.1172c27.9668 0 39.1719 -21.2051 39.1719 -52.2822v-123.68h77.333zM274.837 217.08c0.131836 0.216797 0.316406 0.477539 0.499023 0.730469v-0.730469h-0.499023z" />
    <glyph glyph-name="007-arrow-point-to-right" unicode="&#xf106;" 
d="M391.429 166.653l-220.152 -220.145c-14.0039 -14.0117 -36.71 -14.0117 -50.707 0c-13.999 13.998 -13.999 36.7031 0 50.7002l194.8 194.795l-194.794 194.788c-13.999 14.0039 -13.999 36.7061 0 50.7051c13.998 14.0039 36.7031 14.0039 50.707 0l220.152 -220.148
c6.99902 -7.00293 10.4941 -16.1709 10.4941 -25.3438c0 -9.17676 -3.50195 -18.3516 -10.5 -25.3516z" />
    <glyph glyph-name="006-facebook-letter-logo" unicode="&#xf105;" 
d="M188.177 348.841c0 12.8799 -2.62207 99.1641 108.701 99.1582h78.5898v-89.7373h-57.8008c-11.4326 0 -23 -11.8486 -23 -20.6582v-58.9365h80.6895c-3.23242 -45.1914 -9.89941 -86.5234 -9.89941 -86.5234h-71.1914v-256.143h-106.089v256.15h-51.6445v86.1982
h51.6445v70.4912z" />
  </font>
</defs></svg>
